%YAML 1.1
%TAG !u! tag:unity3d.com,2011:
--- !u!21 &2100000
Material:
  serializedVersion: 6
  m_ObjectHideFlags: 0
  m_CorrespondingSourceObject: {fileID: 0}
  m_PrefabInstance: {fileID: 0}
  m_PrefabAsset: {fileID: 0}
  m_Name: Chimney
  m_Shader: {fileID: -6465566751694194690, guid: 94a4946c254df5940b6873bf3ecf702c,
    type: 3}
  m_ShaderKeywords: 
  m_LightmapFlags: 4
  m_EnableInstancingVariants: 0
  m_DoubleSidedGI: 0
  m_CustomRenderQueue: -1
  stringTagMap: {}
  disabledShaderPasses: []
  m_SavedProperties:
    serializedVersion: 3
    m_TexEnvs:
    - Texture2D_6EBEE4B7:
        m_Texture: {fileID: 2800000, guid: 12f6176df11da3544a60931925d32a97, type: 3}
        m_Scale: {x: 1, y: 1}
        m_Offset: {x: 0, y: 0}
    - Texture2D_9850B85B:
        m_Texture: {fileID: 2800000, guid: 9dc85d033201f224487d2145401dfcfb, type: 3}
        m_Scale: {x: 1, y: 1}
        m_Offset: {x: 0, y: 0}
    - _BaseMap:
        m_Texture: {fileID: 0}
        m_Scale: {x: 1, y: 1}
        m_Offset: {x: 0, y: 0}
    - _BumpMap:
        m_Texture: {fileID: 0}
        m_Scale: {x: 1, y: 1}
        m_Offset: {x: 0, y: 0}
    - _EmissionMap:
        m_Texture: {fileID: 0}
        m_Scale: {x: 1, y: 1}
        m_Offset: {x: 0, y: 0}
    - _MainTex:
        m_Texture: {fileID: 0}
        m_Scale: {x: 1, y: 1}
        m_Offset: {x: 0, y: 0}
    - _MetallicGlossMap:
        m_Texture: {fileID: 0}
        m_Scale: {x: 1, y: 1}
        m_Offset: {x: 0, y: 0}
    - _OcclusionMap:
        m_Texture: {fileID: 0}
        m_Scale: {x: 1, y: 1}
        m_Offset: {x: 0, y: 0}
    - _SpecGlossMap:
        m_Texture: {fileID: 0}
        m_Scale: {x: 1, y: 1}
        m_Offset: {x: 0, y: 0}
    m_Floats:
    - Vector1_10D09447: 0.97
    - Vector1_1A0EBA1D: 0.3
    - Vector1_A29C20C: 2
    - Vector1_F12E94C2: 0
    - _AlphaClip: 0
    - _Blend: 0
    - _BumpScale: 1
    - _Cull: 2
    - _Cutoff: 0.5
    - _DstBlend: 0
    - _EnvironmentReflections: 1
    - _GlossMapScale: 0
    - _Glossiness: 0
    - _GlossyReflections: 0
    - _Metallic: 0
    - _OcclusionStrength: 1
    - _QueueOffset: 0
    - _ReceiveShadows: 1
    - _Smoothness: 0.5
    - _SmoothnessTextureChannel: 0
    - _SpecularHighlights: 1
    - _SrcBlend: 1
    - _Surface: 0
    - _WorkflowMode: 1
    - _ZWrite: 1
    m_Colors:
    - Color_2235531C: {r: 0.15129936, g: 0.37735847, b: 0.24334115, a: 1}
    - Color_275365AA: {r: 2.297397, g: 2.297397, b: 2.297397, a: 0}
    - Color_29BA43F5: {r: 0.31372547, g: 0.5411765, b: 0.37254897, a: 0}
    - Color_4B3FF43C: {r: 0.31372547, g: 0.5411765, b: 0.37254897, a: 1}
    - Color_D654D5FD: {r: 3.4415908, g: 2.684801, b: 2.684801, a: 0}
    - Color_DCB138E9: {r: 0.2716714, g: 0.2763614, b: 0.3490566, a: 0}
    - Vector2_49D40BA3: {r: 0, g: 0.3, b: 0, a: 0}
    - Vector2_4BB1A39A: {r: 0.51, g: 0.61, b: 0, a: 0}
    - Vector2_7C7F05F5: {r: 0.5, g: 0.65, b: 0, a: 0}
    - Vector2_CAF7D49D: {r: 0.23, g: 0.42, b: 0, a: 0}
    - Vector2_FC8C64CD: {r: 0.07, g: 0, b: 0, a: 0}
    - _BaseColor: {r: 0.1539, g: 0.1539, b: 0.1539, a: 1}
    - _Color: {r: 0.1539, g: 0.1539, b: 0.1539, a: 1}
    - _EmissionColor: {r: 0, g: 0, b: 0, a: 1}
    - _SpecColor: {r: 0.19999996, g: 0.19999996, b: 0.19999996, a: 1}
--- !u!114 &9136673637098854503
MonoBehaviour:
  m_ObjectHideFlags: 11
  m_CorrespondingSourceObject: {fileID: 0}
  m_PrefabInstance: {fileID: 0}
  m_PrefabAsset: {fileID: 0}
  m_GameObject: {fileID: 0}
  m_Enabled: 1
  m_EditorHideFlags: 0
  m_Script: {fileID: 11500000, guid: d0353a89b1f911e48b9e16bdc9f2e058, type: 3}
  m_Name: 
  m_EditorClassIdentifier: 
  version: 1
