%YAML 1.1
%TAG !u! tag:unity3d.com,2011:
--- !u!21 &2100000
Material:
  serializedVersion: 6
  m_ObjectHideFlags: 0
  m_CorrespondingSourceObject: {fileID: 0}
  m_PrefabInstance: {fileID: 0}
  m_PrefabAsset: {fileID: 0}
  m_Name: BirchLeafGreenQuad 1
  m_Shader: {fileID: -6465566751694194690, guid: 4a00deb96a375a14da8baa89fa56b792,
    type: 3}
  m_ShaderKeywords: _ENVIRONMENTREFLECTIONS_OFF
  m_LightmapFlags: 4
  m_EnableInstancingVariants: 1
  m_DoubleSidedGI: 0
  m_CustomRenderQueue: -1
  stringTagMap: {}
  disabledShaderPasses: []
  m_SavedProperties:
    serializedVersion: 3
    m_TexEnvs:
    - Texture2D_16FBC7B9:
        m_Texture: {fileID: 2800000, guid: f76390a95c014814ba24a28500d5caba, type: 3}
        m_Scale: {x: 1, y: 1}
        m_Offset: {x: 0, y: 0}
    - Texture2D_6EBEE4B7:
        m_Texture: {fileID: 2800000, guid: 9a19ae9629a2542748d474f0f6bebcb4, type: 3}
        m_Scale: {x: 1, y: 1}
        m_Offset: {x: 0, y: 0}
    - Texture2D_94AFEDCF:
        m_Texture: {fileID: 2800000, guid: c6429dd9ad3ff9144900872584748f52, type: 3}
        m_Scale: {x: 1, y: 1}
        m_Offset: {x: 0, y: 0}
    - Texture2D_C42604C6:
        m_Texture: {fileID: 2800000, guid: 4d0e7ebe94bdc1546883b8741fb77c18, type: 3}
        m_Scale: {x: 1, y: 1}
        m_Offset: {x: 0, y: 0}
    - Texture2D_E5287C6F:
        m_Texture: {fileID: 2800000, guid: 07659c62279fb724fa4e431f7579e83a, type: 3}
        m_Scale: {x: 1, y: 1}
        m_Offset: {x: 0, y: 0}
    - _BaseMap:
        m_Texture: {fileID: 0}
        m_Scale: {x: 1, y: 1}
        m_Offset: {x: 0, y: 0}
    - _BumpMap:
        m_Texture: {fileID: 0}
        m_Scale: {x: 1, y: 1}
        m_Offset: {x: 0, y: 0}
    - _EmissionMap:
        m_Texture: {fileID: 0}
        m_Scale: {x: 1, y: 1}
        m_Offset: {x: 0, y: 0}
    - _MainLightModelNoShadowws_70F9DB19_Texture2D446CFD29_1385537150:
        m_Texture: {fileID: 0}
        m_Scale: {x: 1, y: 1}
        m_Offset: {x: 0, y: 0}
    - _MainLightModelNoShadowws_70F9DB19_Texture2D905A3EF9_1960378452:
        m_Texture: {fileID: 2800000, guid: 4d0e7ebe94bdc1546883b8741fb77c18, type: 3}
        m_Scale: {x: 1, y: 1}
        m_Offset: {x: 0, y: 0}
    - _MainTex:
        m_Texture: {fileID: 2800000, guid: ea42fdf3b167c7a46aa060bfe328af2b, type: 3}
        m_Scale: {x: 1, y: 1}
        m_Offset: {x: 0, y: 0}
    - _MetallicGlossMap:
        m_Texture: {fileID: 0}
        m_Scale: {x: 1, y: 1}
        m_Offset: {x: 0, y: 0}
    - _NormalTex:
        m_Texture: {fileID: 2800000, guid: f76390a95c014814ba24a28500d5caba, type: 3}
        m_Scale: {x: 1, y: 1}
        m_Offset: {x: 0, y: 0}
    - _OcclusionMap:
        m_Texture: {fileID: 0}
        m_Scale: {x: 1, y: 1}
        m_Offset: {x: 0, y: 0}
    - _OcclusionTex:
        m_Texture: {fileID: 2800000, guid: c6429dd9ad3ff9144900872584748f52, type: 3}
        m_Scale: {x: 1, y: 1}
        m_Offset: {x: 0, y: 0}
    - _SmoothnessTex:
        m_Texture: {fileID: 2800000, guid: 3eb35f4889b4769428ec57550121d532, type: 3}
        m_Scale: {x: 1, y: 1}
        m_Offset: {x: 0, y: 0}
    - _SpecGlossMap:
        m_Texture: {fileID: 0}
        m_Scale: {x: 1, y: 1}
        m_Offset: {x: 0, y: 0}
    - _Texture2DAsset_E8C87502_Out_0:
        m_Texture: {fileID: 2800000, guid: bf91a9f94ae4348b09a32bb9c02a7b4d, type: 3}
        m_Scale: {x: 1, y: 1}
        m_Offset: {x: 0, y: 0}
    m_Floats:
    - Boolean_F4B9FD79: 1
    - BranchStiffness: 1
    - HARD_SHADING: 0
    - Vector1_13FAF1E2: 0.8
    - Vector1_1EF10E40: 0.8
    - Vector1_340588E7: 0
    - Vector1_3C316D74: 2.36
    - Vector1_41FCC5C7: 0.498
    - Vector1_4B6399B4: 0.09
    - Vector1_962926F1: 1.1
    - _AlphaClip: 0
    - _BacklightAmount: 2.3
    - _Blend: 0
    - _BumpScale: 1
    - _Cull: 2
    - _Cutoff: 0.5
    - _DabsRotation: 15
    - _DabsTiling: 38
    - _DstBlend: 0
    - _EnvironmentReflections: 0
    - _GlossMapScale: 0
    - _Glossiness: 0
    - _GlossyReflections: 0
    - _HardShading: 1
    - _LeafStiffness: 0.95
    - _Metallic: 0
    - _NormalMult: 1
    - _OcclusionMult: 0.844
    - _OcclusionStrength: 1
    - _QueueOffset: 0
    - _ReceiveShadows: 1
    - _Smoothness: 1
    - _SmoothnessTextureChannel: 0
    - _SpecularHighlights: 1
    - _SrcBlend: 1
    - _Strength: 9.07
    - _Surface: 0
    - _TrunkStiffness: 0.93
    - _Turbulence: 2.23
    - _WorkflowMode: 1
    - _ZWrite: 1
    m_Colors:
    - Color_275365AA: {r: 0.5089302, g: 0.7529412, b: 0.29411766, a: 1}
    - Color_D654D5FD: {r: 4.433468, g: 4.3174086, b: 0, a: 1}
    - Color_DCB138E9: {r: 0, g: 0.2627451, b: 0.15516336, a: 1}
    - Color_DF0B7C58: {r: 1, g: 1, b: 1, a: 0}
    - Vector2_45E88D1A: {r: 1, g: 1, b: 0, a: 0}
    - Vector2_4BB1A39A: {r: 0.45, g: 1.59, b: 0, a: 0}
    - Vector2_CAF7D49D: {r: 0.2, g: 0.4, b: 0, a: 0}
    - _BaseColor: {r: 0.5, g: 0.5, b: 0.5, a: 1}
    - _Color: {r: 1, g: 1, b: 1, a: 1}
    - _Direction: {r: 0.68, g: 1, b: 0, a: 0}
    - _EmissionColor: {r: 0, g: 0, b: 0, a: 1}
    - _SpecColor: {r: 0.19999996, g: 0.19999996, b: 0.19999996, a: 1}
    - _Specular: {r: 1, g: 1, b: 1, a: 0}
    - _TextureTiling: {r: 1, g: 1, b: 0, a: 0}
--- !u!114 &2575725496929960916
MonoBehaviour:
  m_ObjectHideFlags: 11
  m_CorrespondingSourceObject: {fileID: 0}
  m_PrefabInstance: {fileID: 0}
  m_PrefabAsset: {fileID: 0}
  m_GameObject: {fileID: 0}
  m_Enabled: 1
  m_EditorHideFlags: 0
  m_Script: {fileID: 11500000, guid: d0353a89b1f911e48b9e16bdc9f2e058, type: 3}
  m_Name: 
  m_EditorClassIdentifier: 
  version: 1
