%YAML 1.1
%TAG !u! tag:unity3d.com,2011:
--- !u!1001 &6707004559469109867
PrefabInstance:
  m_ObjectHideFlags: 0
  serializedVersion: 2
  m_Modification:
    m_TransformParent: {fileID: 0}
    m_Modifications:
    - target: {fileID: -5178661895559278292, guid: 95657ac467f26407cab8f2c839cc8156,
        type: 3}
      propertyPath: m_Mesh
      value: 
      objectReference: {fileID: 7629811779324647873, guid: 95657ac467f26407cab8f2c839cc8156,
        type: 3}
    - target: {fileID: -4216859302048453862, guid: 95657ac467f26407cab8f2c839cc8156,
        type: 3}
      propertyPath: m_LocalPosition.x
      value: 2.32
      objectReference: {fileID: 0}
    - target: {fileID: -4216859302048453862, guid: 95657ac467f26407cab8f2c839cc8156,
        type: 3}
      propertyPath: m_LocalPosition.y
      value: 0.25553536
      objectReference: {fileID: 0}
    - target: {fileID: -4216859302048453862, guid: 95657ac467f26407cab8f2c839cc8156,
        type: 3}
      propertyPath: m_LocalPosition.z
      value: -2.18
      objectReference: {fileID: 0}
    - target: {fileID: -4216859302048453862, guid: 95657ac467f26407cab8f2c839cc8156,
        type: 3}
      propertyPath: m_LocalRotation.x
      value: 0
      objectReference: {fileID: 0}
    - target: {fileID: -4216859302048453862, guid: 95657ac467f26407cab8f2c839cc8156,
        type: 3}
      propertyPath: m_LocalRotation.y
      value: 0
      objectReference: {fileID: 0}
    - target: {fileID: -4216859302048453862, guid: 95657ac467f26407cab8f2c839cc8156,
        type: 3}
      propertyPath: m_LocalRotation.z
      value: 0
      objectReference: {fileID: 0}
    - target: {fileID: -4216859302048453862, guid: 95657ac467f26407cab8f2c839cc8156,
        type: 3}
      propertyPath: m_LocalRotation.w
      value: 1
      objectReference: {fileID: 0}
    - target: {fileID: -4216859302048453862, guid: 95657ac467f26407cab8f2c839cc8156,
        type: 3}
      propertyPath: m_RootOrder
      value: 0
      objectReference: {fileID: 0}
    - target: {fileID: -4216859302048453862, guid: 95657ac467f26407cab8f2c839cc8156,
        type: 3}
      propertyPath: m_LocalEulerAnglesHint.x
      value: 0
      objectReference: {fileID: 0}
    - target: {fileID: -4216859302048453862, guid: 95657ac467f26407cab8f2c839cc8156,
        type: 3}
      propertyPath: m_LocalEulerAnglesHint.y
      value: 0
      objectReference: {fileID: 0}
    - target: {fileID: -4216859302048453862, guid: 95657ac467f26407cab8f2c839cc8156,
        type: 3}
      propertyPath: m_LocalEulerAnglesHint.z
      value: 0
      objectReference: {fileID: 0}
    - target: {fileID: -1504981713932161579, guid: 95657ac467f26407cab8f2c839cc8156,
        type: 3}
      propertyPath: m_Materials.Array.data[0]
      value: 
      objectReference: {fileID: 2100000, guid: 47450a8eaa8754dad8530a00af566dc6, type: 2}
    - target: {fileID: -927199367670048503, guid: 95657ac467f26407cab8f2c839cc8156,
        type: 3}
      propertyPath: m_Name
      value: MayaLeaf VariantLookat
      objectReference: {fileID: 0}
    m_RemovedComponents: []
  m_SourcePrefab: {fileID: 100100000, guid: 95657ac467f26407cab8f2c839cc8156, type: 3}
